…
`cropdatape` package:

``` r
#Load cropdatape package
library(cropdatape)
#Load dplyr package to filter and select information
library(dplyr)
cropdatape %>% 
      filter(crop == "sweet potato") %>% 
      group_by(department, year) %>% 
      summarise(yieldMean = mean(yield, na.rm = TRUE))
#> # A tibble: 235 x 3
#> # Groups:   department [?]
#>    department  year yieldMean
#>    <fct>      <dbl>     <dbl>
#>  1 Amazonas    2004      NaN 
#>  2 Amazonas    2005     7100.
#>  3 Amazonas    2006     6754.
#>  4 Amazonas    2007     9254.
#>  5 Amazonas    2008    10185.
#>  6 Amazonas    2009     8009.
#>  7 Amazonas    2010     7817.
#>  8 Amazonas    2011     7769.
#>  9 Amazonas    2012     8017.
#> 10 Amazonas    2013     7150.
#> # ... with 225 more rows
```
…
