Annual agricultural production data of Peru — cropdatape • cropdatape
…
  productionProduction of crop measured by tons (t)

  yieldYield of crop measured by kilograms per hectare (kg/ha)

  pricePlotPrice per plot. The peruvian currency peruvian nuevo sol

    Source

    http://siea.minagri.gob.pe/siea/?q=publicaciones/anuarios-estadisticos

    Examples

cropdatape
#> # A tibble: 15,080 x 9
#>    crop  department  year month      sowa harva production yield pricePlot
#>    <fct> <fct>      <dbl> <fct>     <dbl> <dbl>      <dbl> <dbl>     <dbl>
#>  1 rice  Amazonas    2004 August      949  2855     20133. 7052.     0.631
#>  2 rice  Amazonas    2004 December   3393  1763     12183. 6910.     0.514
#>  3 rice  Amazonas    2004 November   2040  2714     18867  6952.     0.617
#>  4 rice  Amazonas    2004 October    1491  2812     19760. 7027.     0.640
#>  5 rice  Amazonas    2004 September  1059  2544     17964  7061.     0.636
#>  6 rice  Ancash      2004 August       NA    NA        NA    NA     NA    
#>  7 rice  Ancash      2004 December    350    NA        NA    NA     NA    
#>  8 rice  Ancash      2004 November    984    NA        NA    NA     NA    
#>  9 rice  Ancash      2004 October     782    NA        NA    NA     NA    
#> 10 rice  Ancash      2004 September    15    NA        NA    NA     NA    
#> # ... with 15,070 more rows
…
